Name,Sex,Division,Equipment,BodyweightKg,WeightClassKg,Bench1Kg,Bench2Kg,Bench3Kg,Best3BenchKg,TotalKg,Place,Event
Delwyn Evans,F,Masters 2,Single-ply,71.15,72,62.5,-65,65,65,65,1,B
Carolina Dillen,F,Open,Single-ply,62.95,63,57.5,-60,-60,57.5,57.5,1,B
Bruce Wills,M,Masters 4,Single-ply,91.9,93,90,-100,100,100,100,2,B
Brian Froggat,M,Masters 2,Single-ply,73.16,74,125,-132.5,-132.5,125,125,1,B
Paul Gattsche,M,Masters 1,Single-ply,119.8,120,182.5,200,206,206,206,1,B
Jason Cunningham-Gerbich,M,Masters 1,Single-ply,179.6,120+,220,230,-240.5,230,230,1,B
Elnez Tofa,M,Open,Single-ply,205,120+,240,250,261,261,261,2,B
Caleb Wright,M,Open,Single-ply,103.35,105,175,185,-195,185,185,2,B
Isher Singh,M,Open,Single-ply,71.1,74,130,-132.5,-135.5,130,130,2,B
