Name,Sex,AgeClass,BodyweightKg,WeightClassKg,Division,Equipment,Event,Squat1Kg,Squat2Kg,Squat3Kg,Squat4Kg,Best3SquatKg,Bench1Kg,Bench2Kg,Bench3Kg,Bench4Kg,Best3BenchKg,Deadlift1Kg,Deadlift2Kg,Deadlift3Kg,Deadlift4Kg,Best3DeadliftKg,TotalKg,Place
Holly Caswell,F,24-39,51.6,52,F-O,Wraps,SBD,80,-90,90,,90,37.5,42.5,50,,50,85,95,-110,,95,235,1
Audra Corbett,F,45-49,70.6,75,F-M2,Wraps,SBD,90,100,110,,110,60,70,-72.5,,70,90,110,120,130,120,300,1
Judi Garner,F,45-49,89.8,90,F-M2,Wraps,SBD,-117.5,117.5,,,117.5,65,72.5,-77.5,,72.5,115,-122.5,122.5,,122.5,312.5,1
Chloe Whylie,F,24-39,89.9,90,F-O,Wraps,SBD,140,155,-165,165,155,70,80,85,87.5,85,140,150,160,175,160,400,1
Molly Davis,F,24-39,137.9,90+,F-O,Wraps,SBD,105,120,-130,,120,55,60,65,,65,100,120,142.5,,142.5,327.5,1
Laura Matthews,F,24-39,62.2,67.5,F-O-E,Multi-ply,SBD,140,150,,,150,90,100,,,100,120,,,,120,370,1
Dan Oultram,M,24-39,74.9,75,M-O,Wraps,SBD,-180,180,-200,,180,130,-140,140,,140,200,210,227.5,,227.5,547.5,1
Uthis Ratnakumar,M,20-23,74,75,M-J,Wraps,SBD,-165,-165,-165,,,90,100,-110,,100,190,200,-210,,200,,DQ
Michael Brown,M,24-39,70.5,75,M-O,Wraps,SBD,135,165,175,,175,117.5,122.5,-127.5,,122.5,205,215,-222.5,,215,512.5,2
Ross Watson,M,24-39,81.1,82.5,M-O,Wraps,SBD,125,135,-142.5,,135,85,92.5,-100,,92.5,170,190,200,,200,427.5,3
Scott Britton,M,24-39,81.9,82.5,M-O,Wraps,SBD,150,165,172.5,,172.5,125,130,-135,,130,192.5,205,217.5,,217.5,520,2
Samuel Rowland-Jones,M,16-17,80,82.5,M-T2,Wraps,SBD,165,-175,180,,180,120,127.5,-132.5,,127.5,190,200,-220,,200,507.5,1
Craig Wallis,M,24-39,82.5,82.5,M-O,Wraps,SBD,220,-225,-225,,220,110,120,130,,130,230,262.5,-267.5,,262.5,612.5,1
Aakash Sadhu,M,20-23,84.2,90,M-J,Wraps,SBD,150,-170,170,,170,120,130,140,,140,200,-215,215,,215,525,1
Kane Davies,M,20-23,88.3,90,M-J,Wraps,SBD,160,-167.5,-167.5,,160,95,100,102.5,,102.5,200,210,-215,,210,472.5,2
Steven Heaney,M,55-59,89.4,90,M-M4,Wraps,SBD,150,-165,165,,165,-80,90,100,,100,160,,,,160,425,1
Adam Travis,M,24-39,90,90,M-O,Wraps,SBD,240,250,260,,260,150,155,160,,160,280,300,305,,305,725,1
Russel Walker,M,24-39,89.6,90,M-O,Wraps,SBD,225,240,255,,255,145,152.5,-157.5,,152.5,240,,265,,265,672.5,2
Andrew Beeston,M,24-39,87.4,90,M-O,Wraps,SBD,220,240,-275,,240,140,155,167.5,,167.5,-210,230,-250,,230,637.5,3
Ben Farmer,M,24-39,85.8,90,M-O,Wraps,SBD,160,180,200,,200,120,130,140,,140,190,210,220,,220,560,4
Stephen Knight,M,40-44,94.1,100,M-M1,Wraps,SBD,180,200,220,,220,140,160,170,,170,200,,,,200,590,1
Jan Hitchcock,M,45-49,99.4,100,M-M2,Wraps,SBD,170,-180,185,,185,140,150,160,,160,170,180,190,,190,535,1
Rob Todd,M,65-69,99.4,100,M-M6,Wraps,SBD,-150,150,-160,,150,90,100,-110,,100,170,180,190,,190,440,1
Rhys Browning,M,24-39,100,100,M-O,Wraps,SBD,255,275,-280,,275,160,170,182.5,,182.5,310,325,-335,,325,782.5,1
Dan Hahn,M,24-39,97.8,100,M-O,Wraps,SBD,240,,,,240,-180,180,-200,,180,280,-300,-300,,280,700,2
Andrew Peters,M,24-39,100,100,M-O,Wraps,SBD,215,235,240,,240,-140,140,-150,,140,270,-290,,,270,650,3
Paul Ashford,M,24-39,98,100,M-O,Wraps,SBD,200,-225,-225,,200,125,140,-150,,140,220,-240,,,220,560,4
Rob Hunter,M,24-39,91.5,100,M-O,Wraps,SBD,-200,-200,-200,,,110,120,-125,,120,200,210,220,,220,,DQ
Don Coates,M,50-54,105.2,110,M-M3,Wraps,SBD,160,170,180,,180,160,170,180,,180,250,260,270,,270,630,1
Phil Horwood,M,24-39,108,110,M-O,Wraps,SBD,250,-265,,,250,165,175,-182.5,,175,250,262.5,-272.5,,262.5,687.5,2
Andre Petakin,M,24-39,102,110,M-O,Wraps,SBD,260,280,300,,300,200,220,-230,,220,260,300,,,300,820,1
David Davies,M,18-19,117.9,125,M-T3,Wraps,SBD,-247.5,-247.5,-260,,,125,132.5,135,,135,250,265,275,,275,,DQ
Alex Willis,M,40-44,115,125,M-M1,Wraps,SBD,160,175,180,,180,125,132.5,-137.5,,132.5,185,200,215,,215,527.5,1
Lewis Salter,M,20-23,120.3,125,M-J,Wraps,SBD,220,,,,220,140,,,,140,240,,,,240,600,1
James Wilmot,M,24-39,123,125,M-O,Wraps,SBD,300,-315,-315,,300,180,190,200,,200,300,310,-320,,310,810,1
Ben Sagal,M,20-23,134.3,140,M-J,Wraps,SBD,180,210,230,,230,120,145,160,,160,220,260,270,,270,660,1
Mark Woodruff,M,24-39,138.2,140,M-O,Wraps,SBD,200,220,250,,250,150,160,-180,,160,250,285,300,,300,710,2
Patrick McMahon,M,24-39,135.3,140,M-O,Wraps,SBD,300,330,-340,,330,190,210,220,,220,220,260,280,,280,830,1
Sam Parker #1,M,24-39,143.6,140+,M-O,Wraps,SBD,282.5,-300,300,,300,220,-230,,,220,280,300,-317.5,,300,820,1
Chris Phelps,M,24-39,80.1,82.5,M-O-E,Multi-ply,SBD,260,-280,-285,,260,165,172.5,-180,,172.5,-280,290,-300,,290,722.5,1
Justin Read,M,24-39,98.6,100,M-O-E,Multi-ply,SBD,220,250,,,250,130,170,185,,185,-220,220,250,,250,685,1
Craig Coombes,M,24-39,107.8,110,M-O-E,Multi-ply,SBD,,420,,,420,285,300,-310,,300,300,315,,,315,1035,1
Jeremy Wray,M,24-39,90,90,M-O,Raw,B,,,,,,160,177.5,187.5,,187.5,,,,,,187.5,1
Chris Apark,M,45-49,103.6,110,M-M2,Raw,B,,,,,,145,-147.5,-147.5,,145,,,,,,145,1
Ben Lee,M,40-44,120.7,125,M-M1,Raw,B,,,,,,-190,190,-205,,190,,,,,,190,1
Todd Abrams Marquis,M,24-39,118.9,125,M-O,Raw,B,,,,,,200,215,220,,220,,,,,,220,1
