Place,Name,Sex,Event,Division,WeightClassKg,Equipment,BirthYear,State,BodyweightKg,Squat1Kg,Squat2Kg,Squat3Kg,Best3SquatKg,Bench1Kg,Bench2Kg,Bench3Kg,Best3BenchKg,Deadlift1Kg,Deadlift2Kg,Deadlift3Kg,Best3DeadliftKg,TotalKg
1,Daria Khoyi,F,SBD,FR-Jr,57,Raw,1995,CA,56.15,110,117.5,-125,117.5,65,67.5,70,70,117.5,125,130,130,317.5
1,Amanda Giacobbe,F,SBD,FR-Jr,72,Raw,1996,CA,67.5,120,125,-132.5,125,-70,72.5,75,75,142.5,150,155,155,355
2,Isha Parol,F,SBD,FR-Jr,72,Raw,1995,CA,65.5,117.5,122.5,132.5,132.5,55,,,55,150,165,-170,165,352.5
3,Olivia Wible,F,SBD,FR-Jr,72,Raw,1995,AZ,69.15,105,110,115,115,-55,-55,55,55,125,132.5,-137.5,132.5,302.5
1,Teresa Hudec,F,SBD,FR-M2a,57,Raw,1967,CA,55.25,80,87.5,-95,87.5,42.5,47.5,-52.5,47.5,85,95,100,100,235
1,Lori Cartwright,F,SBD,FR-M2a,63,Raw,1965,CA,62.15,80,87.5,-92.5,87.5,40,45,-47.5,45,100,105,-110,105,237.5
1,April Charles,F,SBD,FR-O,52,Raw,1988,CA,51.95,85,87.5,90,90,42.5,45,-50,45,95,102.5,107.5,107.5,242.5
2,Kathleen Majumdar,F,SBD,FR-O,52,Raw,1994,CA,50.55,72.5,-77.5,-77.5,72.5,35,-37.5,37.5,37.5,92.5,95,97.5,97.5,207.5
1,Debi Stoliar,F,SBD,FR-O,57,Raw,1979,CA,55.85,107.5,112.5,117.5,117.5,55,60,-62.5,60,125,132.5,137.5,137.5,315
2,Judy Wong,F,SBD,FR-O,57,Raw,1988,CA,56.95,77.5,82.5,85,85,57.5,-60,60,60,95,100,105,105,250
1,Sarah Perry,F,SBD,FR-O,63,Raw,1987,CA,59.5,117.5,122.5,127.5,127.5,50,52.5,55,55,130,135,142.5,142.5,325
2,Sheryl Soo,F,SBD,FR-O,63,Raw,1990,CA,62.75,90,107.5,-110,107.5,47.5,-55,-55,47.5,102.5,132.5,135,135,290
3,Ashley Mowrey,F,SBD,FR-O,63,Raw,1988,CA,63,60,65,-70,65,40,42.5,-45,42.5,80,85,-90,85,192.5
1,Isha Parol,F,SBD,FR-O,72,Raw,1995,CA,65.5,117.5,122.5,132.5,132.5,55,-57.5,-57.5,55,150,,,150,337.5
2,Vanessa Trujillo,F,SBD,FR-O,72,Raw,1994,CA,70.35,125,-130,-130,125,57.5,60,-62.5,60,142.5,-145,145,145,330
3,Jessica Palomino,F,SBD,FR-O,72,Raw,1986,CA,67.1,117.5,125,-127.5,125,65,70,-72.5,70,120,127.5,132.5,132.5,327.5
4,Olivia Wible,F,SBD,FR-O,72,Raw,1995,AZ,69.15,105,110,115,115,55,,,55,125,,,125,295
1,Megan Mondelli,F,SBD,FR-O,84,Raw,1991,CA,74.85,112.5,-120,-120,112.5,65,-70,-70,65,137.5,145,152.5,152.5,330
2,Lisa Cervantes,F,SBD,FR-O,84,Raw,1982,CA,76.4,92.5,97.5,105,105,42.5,-47.5,52.5,52.5,105,115,125,125,282.5
1,Katherine Bickford,F,SBD,FR-O,84+,Raw,1986,CA,112.8,115,-122.5,-122.5,115,55,60,-62.5,60,137.5,147.5,150,150,325
2,Pamela Gombe,F,SBD,FR-O,84+,Raw,1979,CA,107.5,70,75,-80,75,47.5,-50,50,50,95,102.5,107.5,107.5,232.5
1,Marvin Lu,M,SBD,MR-Jr,83,Raw,1997,CA,79.3,170,177.5,182.5,182.5,110,115,122.5,122.5,205,217.5,227.5,227.5,532.5
2,Mazyar Atashband,M,SBD,MR-Jr,83,Raw,1998,CA,75.2,130,142.5,150,150,90,-102.5,-102.5,90,165,180,-190,180,420
1,Randall Bittle Jr,M,SBD,MR-Jr,120+,Raw,1995,CA,130.2,192.5,-197.5,202.5,202.5,120,125,127.5,127.5,195,202.5,210,210,540
2,Juan Paolo Duenas,M,SBD,MR-Jr,120+,Raw,1995,CA,127.2,152.5,162.5,177.5,177.5,92.5,100,-110,100,170,177.5,185,185,462.5
1,Thomas Perry,M,SBD,MR-M2a,105,Raw,1964,CA,103.8,195,202.5,-207.5,202.5,142.5,-147.5,-147.5,142.5,195,-205,-205,195,540
1,Christopher Chois,M,SBD,MR-O,66,Raw,1989,CA,64.7,147.5,155,162.5,162.5,97.5,105,110,110,187.5,195,202.5,202.5,475
1,Daniel Huang,M,SBD,MR-O,74,Raw,1989,CA,72.2,155,165,172.5,172.5,110,117.5,-125,117.5,165,175,182.5,182.5,472.5
2,Nicholas Lim,M,SBD,MR-O,74,Raw,1994,CA,71.35,140,147.5,152.5,152.5,92.5,-102.5,-102.5,92.5,167.5,182.5,190,190,435
DQ,Chris Baula,M,SBD,MR-O,74,Raw,1983,CA,73,167.5,175,-182.5,175,100,105,107.5,107.5,-205,-205,-205,,
1,Matthew Yeung,M,SBD,MR-O,83,Raw,1991,CA,82.4,202.5,217.5,225,225,170,185,190,190,222.5,240,250,250,665
2,Cameron Farrens,M,SBD,MR-O,83,Raw,1994,CA,80.1,185,192.5,-202.5,192.5,120,125,-127.5,125,197.5,205,217.5,217.5,535
3,Mathew Nguyen,M,SBD,MR-O,83,Raw,1990,CA,81.8,162.5,175,182.5,182.5,117.5,125,-137.5,125,-195,210,225,225,532.5
4,Gary Kuang,M,SBD,MR-O,83,Raw,1990,CA,77.9,150,165,172.5,172.5,-112.5,112.5,-115,112.5,-192.5,207.5,-220,207.5,492.5
5,Jules Damey,M,SBD,MR-O,83,Raw,1991,CA,80,150,165,175,175,-102.5,107.5,110,110,185,205,-212.5,205,490
1,Dillon Magee,M,SBD,MR-O,93,Raw,1997,CA,90.3,200,210,220,220,147.5,155,-160,155,227.5,242.5,-255,242.5,617.5
2,Marcus Bishop,M,SBD,MR-O,93,Raw,1992,CA,92,205,212.5,220,220,120,127.5,132.5,132.5,240,250,262.5,262.5,615
3,Kevin Saage,M,SBD,MR-O,93,Raw,1989,CA,90,180,190,200,200,140,-147.5,-152.5,140,222.5,235,245,245,585
4,Rafael Palomino,M,SBD,MR-O,93,Raw,1986,CA,92.4,182.5,195,200,200,125,130,-132.5,130,205,220,227.5,227.5,557.5
5,Steve Babcock,M,SBD,MR-O,93,Raw,1981,CA,89.7,162.5,-182.5,-185,162.5,115,-125,-125,115,187.5,210,-220,210,487.5
1,Manasa Chandra,M,SBD,MR-O,105,Raw,1986,CA,101.9,157.5,160,162.5,162.5,97.5,-100,100,100,185,192.5,205,205,467.5
2,Daniel Chee,M,SBD,MR-O,105,Raw,1989,CA,102.9,120,135,142.5,142.5,70,75,-82.5,75,137.5,145,155,155,372.5
DQ,Bradley Cooper,M,SBD,MR-O,105,Raw,1991,CA,96.3,167.5,-177.5,-185,167.5,-115,-115,-115,,220,232.5,,232.5,
DQ,John Wright #4,M,SBD,MR-O,105,Raw,1991,CA,100.3,190,200,205,205,-140,-147.5,-147.5,,-217.5,217.5,-227.5,217.5,
1,Jake Fernando,M,SBD,MR-O,120+,Raw,1992,CA,132,160,167.5,182.5,182.5,95,102.5,107.5,107.5,140,150,160,160,450
1,Stevin Lu,M,SBD,MR-T2,66,Raw,2000,CA,63.5,-135,142.5,150,150,90,95,102.5,102.5,165,175,-182.5,175,427.5
DQ,Jason Nguyen,M,SBD,MR-T2,74,Raw,2001,CA,72.1,-175,-185,-185,,102.5,107.5,-110,107.5,202.5,210,-220,210,
1,Christian Phimpasath,M,SBD,MR-T3,66,Raw,1999,CA,64.75,162.5,-167.5,170,170,102.5,-107.5,110,110,192.5,-212.5,-212.5,192.5,472.5
1,Shaun Weber,M,SBD,MR-T3,74,Raw,1999,CA,73.9,185,195,-202.5,195,-110,110,-115,110,207.5,217.5,222.5,222.5,527.5
2,Jason Panelli,M,SBD,MR-T3,74,Raw,1999,CA,72.1,147.5,155,165,165,97.5,105,-107.5,105,-205,205,-217.5,205,475
