Place,Name,Age,Sex,BodyweightKg,Squat1Kg,Squat2Kg,Squat3Kg,Best3SquatKg,Bench1Kg,Bench2Kg,Bench3Kg,Best3BenchKg,Deadlift1Kg,Deadlift2Kg,Deadlift3Kg,Best3DeadliftKg,TotalKg,Equipment,WeightClassKg,Event,Division
1,Hannah Tan,23,F,51,105,-112.5,-112.5,105,52.5,55,-57.5,55,130,140,-142.5,140,300,Raw,52,SBD,Open
1,Brigot Pugh,42,F,56.2,120,-126,126,126,62.5,67.5,-70,67.5,170,-181,-181,170,363.5,Raw,57,SBD,Open
2,Phoebe Haywood,28,F,56.5,130,137.5,-142.5,137.5,-70,70,-75,70,130,137.5,145,145,352.5,Raw,57,SBD,Open
3,Rebecca Biermann,26,F,54.45,120,125,-130,125,60,-62.5,-62.5,60,120,127.5,132.5,132.5,317.5,Raw,57,SBD,Open
1,Heidi Kearns,35,F,61.55,145,150,152.5,152.5,72.5,75,-77.5,75,167.5,-175,-175,167.5,395,Raw,63,SBD,Open
2,Jojo Carmody,35,F,62.35,105,110,-115,110,60,65,-67.5,65,110,115,122.5,122.5,297.5,Raw,63,SBD,Open
3,Melissa Patrick,23,F,61.5,-75,-75,75,75,50,-55,-55,50,-100,100,-115,100,225,Raw,63,SBD,Open
1,Megan Reed,23,F,69.1,145,-150,-150,145,75,80,-82.5,80,150,155,160,160,385,Raw,72,SBD,Open
2,Evangaline Mouratidis,22,F,69.75,130,135,-137.5,135,67.5,-72.5,-72.5,67.5,147.5,157.5,160,160,362.5,Raw,72,SBD,Open
3,Leanne Knox,44,F,67.8,125,135,-140,135,65,-67.5,67.5,67.5,130,140,150,150,352.5,Raw,72,SBD,Open
4,Emma Pawson,28,F,70.15,90,100,-110,100,55,-57.5,-60,55,125,132.5,140,140,295,Raw,72,SBD,Open
5,Therese Lynch,34,F,70.65,105,110,-112.5,110,-57.5,57.5,60,60,120,122.5,-127.5,122.5,292.5,Raw,72,SBD,Open
6,Kayla Stephens,30,F,70.45,100,-107.5,-107.5,100,-55,55,-60,55,125,132.5,-140,132.5,287.5,Raw,72,SBD,Open
7,Peta Day,57,F,70.95,87.5,92.5,-95,92.5,52.5,-55,-55,52.5,132.5,140.5,-142.5,140.5,285.5,Raw,72,SBD,Open
8,Meaghan Trovato,37,F,66,-82.5,82.5,87.5,87.5,-52.5,52.5,-57.5,52.5,110,115,120,120,260,Raw,72,SBD,Open
9,Linda Lynch,63,F,67.75,85,-90,-90,85,45,-47.5,47.5,47.5,115,120,125,125,257.5,Raw,72,SBD,Open
10,Julie Bailey,55,F,70.95,62.5,70,75,75,45,47.5,-50,47.5,87.5,95,-100,95,217.5,Raw,72,SBD,Open
1,Megan Tanzer,34,F,80.9,137.5,-150,-150,137.5,82.5,87.5,-90,87.5,135,155,160,160,385,Raw,84,SBD,Open
2,Emily Baxter,30,F,83.55,85,90,-95,90,-47.5,47.5,-50,47.5,115,120,-122.5,120,257.5,Raw,84,SBD,Open
1,Jennifer Simmons,27,F,94,140,150,-155,150,75,-80,-80,75,155,165,-175,165,390,Raw,84+,SBD,Open
2,Samantha Jackson,33,F,100.7,-122.5,122.5,127.5,127.5,72.5,-77.5,-77.5,72.5,125,132.5,142.5,142.5,342.5,Raw,84+,SBD,Open
3,Cait Haisley,27,F,87.05,105,110,-115,110,55,60,-62.5,60,105,115,120,120,290,Raw,84+,SBD,Open
1,Joanne Mitchell,39,F,71.2,,,,,75,80,-90,80,,,,,80,Raw,72,B,Open
1,Christine Wiliams,44,F,81.85,,,,,80.5,82.5,-85,82.5,,,,,82.5,Raw,84,B,Open
1,Jessica Moravcik,23,F,102.5,,,,,57.5,60,62.5,62.5,,,,,62.5,Raw,84+,B,Open
1,Brodie Toms,15,M,52.95,100,-110,110,110,65,67.5,75,75,121,132.5,-145,132.5,317.5,Raw,53,SBD,Open
1,Joel Wieland,28,M,65.95,165,-170,-170,165,110,-115,-115,110,-180,182.5,-190,182.5,457.5,Raw,66,SBD,Open
2,Anthony Antonellis,25,M,64.95,127.5,135,140,140,100,105,-110,105,170,182.5,190,190,435,Raw,66,SBD,Open
3,Christian Cortuna,20,M,65.8,135,145,-155,145,75,85,87.5,87.5,162.5,-190,-190,162.5,395,Raw,66,SBD,Open
1,Ross Rickards,32,M,66.9,190,-205,-205,190,120,-130,-130,120,200,215,220,220,530,Raw,74,SBD,Open
2,Phil Wade,31,M,70.4,182.5,190,-197.5,190,100,107.5,112.5,112.5,180,-197.5,197.5,197.5,500,Raw,74,SBD,Open
3,Aaron Fontana,16,M,68.4,150,155,-160,155,75,77.5,82.5,82.5,200,-210,-235,200,437.5,Raw,74,SBD,Open
4,Terrence Munro,57,M,69.3,97.5,105,-110,105,72.5,75,-80,75,125,-132.5,142.5,142.5,322.5,Raw,74,SBD,Open
1,Adam Warnock,28,M,80.95,205,217.5,-225,217.5,122.5,127.5,-132.5,127.5,240,-255,-260,240,585,Raw,83,SBD,Open
2,Brett Dyson,28,M,80.55,177.5,185,192.5,192.5,125,-130,-130,125,180,192.5,202.5,202.5,520,Raw,83,SBD,Open
3,Nelson Woods,21,M,81.95,135,145,155,155,90,95,100,100,177.5,185,190,190,445,Raw,83,SBD,Open
4,Ross Dingle,57,M,82.35,130,142.5,150,150,95,102.5,-107.5,102.5,165,175,185,185,437.5,Raw,83,SBD,Open
5,Arthur Tecson,23,M,82.2,127.5,135,140,140,100,105,110,110,160,172.5,180,180,430,Raw,83,SBD,Open
6,Rod Wecker,59,M,75.05,70,80,85,85,55,62.5,-67.5,62.5,107.5,115,120,120,267.5,Raw,83,SBD,Open
1,Huw Day,27,M,92.3,-220,-230,230,230,-150,150,155,155,250,260,-270,260,645,Raw,93,SBD,Open
2,Marshall Scott,23,M,92.05,195,210,217.5,217.5,-120,120,135,135,220,235,247.5,247.5,600,Raw,93,SBD,Open
3,Eli Rinaldo,26,M,92.35,210,217.5,-225,217.5,130,135,-140,135,225,240,-250,240,592.5,Raw,93,SBD,Open
4,Favian Arcidiacono,23,M,90.4,175,185,192.5,192.5,137.5,142.5,145,145,245,-260,-262.5,245,582.5,Raw,93,SBD,Open
5,Blake Mayocchi,18,M,88.95,190,-200,205,205,125,135,140,140,205,215,230,230,575,Raw,93,SBD,Open
6,Mitchell Nilsson,17,M,86.55,190,205,215,215,-105,120,125,125,200,220,230,230,570,Raw,93,SBD,Open
7,Matthew Ruff,21,M,90.8,190,200,210,210,112.5,120,-125,120,215,225,-235,225,555,Raw,93,SBD,Open
8,Leigh Wiltshire,31,M,91,-175,175,-185,175,125,-132.5,135,135,200,215,-230,215,525,Raw,93,SBD,Open
9,Adam Gifford,40,M,90.55,140,-150,155,155,125,130,-132.5,130,165,175,185,185,470,Raw,93,SBD,Open
1,Kahn Stephenson,21,M,103.8,120,135,-150,135,147.5,-155,-155,147.5,230,-242.5,-245,230,512.5,Raw,105,SBD,Open
2,Jarrod Hayes,22,M,100.5,110,125,-140,125,65,72.5,-82.5,72.5,120,135,-150,135,332.5,Raw,105,SBD,Open
1,Bernard Sabadi,32,M,116.75,-185,-197.5,197.5,197.5,160,172.5,-180,172.5,240,260,272.5,272.5,642.5,Raw,120,SBD,Open
2,Cameron Drendel,24,M,118.6,235,245,255,255,115,122.5,127.5,127.5,245,-255,-255,245,627.5,Raw,120,SBD,Open
3,Mick O'Mara,35,M,115.7,200,210,215,215,130,-145,-145,130,240,-255,-255,240,585,Raw,120,SBD,Open
4,Liam O'Connell,28,M,109.45,185,195,-205,195,115,-120,-120,115,210,225,-240,225,535,Raw,120,SBD,Open
5,Jack Townsend,17,M,116.25,-150,155,160,160,100,-105,105,105,200,205,-210,205,470,Raw,120,SBD,Open
1,Tyron Senituli,23,M,142,290,310,325,325,200,215,-227.5,215,300,320,-330,320,860,Raw,120+,SBD,Open
2,Cameron McKenzie,23,M,121.35,300,317.5,-327.5,317.5,182.5,192.5,-195,192.5,315,340,-350,340,850,Raw,120+,SBD,Open
3,Joshua Patacca,20,M,150.35,270,285,292.5,292.5,180,187.5,190,190,290,305,-310,305,787.5,Raw,120+,SBD,Open
4,Rob Murrell,35,M,126.7,275,287.5,300,300,170,175,-180,175,270,285,-292.5,285,760,Raw,120+,SBD,Open
5,Brock Cook,31,M,177.95,260,-272.5,-272.5,260,165,-177.5,-177.5,165,235,250,-255,250,675,Raw,120+,SBD,Open
6,Joshua Russell,25,M,148.65,190,200,210,210,160,167.5,170,170,190,200,-210,200,580,Raw,120+,SBD,Open
1,Mish Perera,31,M,56.95,,,,,102.5,-107.5,-107.5,102.5,,,,,102.5,Raw,59,B,Open
1,Gabriel Williams,17,M,63.3,,,,,75,77.5,-82.5,77.5,,,,,77.5,Raw,66,B,Open
1,Ricardo Rivas,26,M,81.8,,,,,140,-147.5,-147.5,140,,,,,140,Raw,83,B,Open
2,Shannan Segrott,26,M,77.4,,,,,82.5,-87.5,-87.5,82.5,,,,,82.5,Raw,83,B,Open
1,Frank Moravcik,43,M,133.4,,,,,135,140,-147.5,140,,,,,140,Raw,120+,B,Open
1,Joshua Chambers,21,M,128,,,,,145,155,-165,155,,,,,155,Single-ply,120+,B,Open
